BankArkel___________________________________________________________________________________________________________________

Stores bank and backpack data and makes it visible for all your chars of your account

/ba_resetall to resetdb